…
    # manually filter each variable and store in a new tibble
    msk_variables <- tibble(variable_msk = colnames(msk), variable_source = "Patient") %>%
      mutate(variable_source = case_when(
        variable_msk %in% c("DNA Input", "Fraction Genome Altered", "Mutation Count", "Sample Collection Source", "Number of Samples Per Patient", "Sample coverage", "Sample Type", "Somatic Status", "Specimen Preservation Type", "Specimen Type", "Tumor Purity") ~ "Sample",
        variable_msk %in% c("Overall Survival (Months)", "Sex", "Smoking History", "Patient's Vital Status") ~ "Patient",
        variable_msk %in% c("Study ID", "Patient ID", "Sample ID", "Cancer Type", "Cancer Type Detailed", "Matched Status", "Metastatic Site", "Overall Survival Status", "Primary Tumor Site", "Oncotree Code", "Sample Class") ~ "Neither"))

    # we only want to consider variables that are patient or sample attributes, the rest are set as "neither"
    # categorical variables with too many levels must also be excluded prior to modelling
    # perfectly colinear variables are also excluded

    print(msk_variables)

    ## # A tibble: 26 × 2
    ##    variable_msk            variable_source
    ##    <chr>                   <chr>          
    ##  1 Study ID                Neither        
    ##  2 Patient ID              Neither        
    ##  3 Sample ID               Neither        
    ##  4 Cancer Type             Neither        
    ##  5 Cancer Type Detailed    Neither        
    ##  6 DNA Input               Sample         
    ##  7 Fraction Genome Altered Sample         
    ##  8 Matched Status          Neither        
    ##  9 Metastatic Site         Neither        
    ## 10 Mutation Count          Sample         
    ## # … with 16 more rows
…
    ## Note: Using an external vector in selections is ambiguous.
    ## ℹ Use `all_of(msk_model_variables)` instead of `msk_model_variables` to silence this message.
    ## ℹ See <https://tidyselect.r-lib.org/reference/faq-external-vector.html>.
    ## This message is displayed once per session.

    #set all our character variables as factors
    msk_clean[sapply(msk_clean, is.character)] <- lapply(msk_clean[sapply(msk_clean, is.character)], as.factor)

    print(msk_clean)

    ## # A tibble: 7,814 × 15
    ##    `DNA Input` `Fraction Genome Altered` `Mutation Count` `Overall Survival (Mo…
    ##          <dbl>                     <dbl>            <dbl>                  <dbl>
    ##  1         250                    0.160                 5                   8.71
    ##  2         250                    0.388                 6                  36.8 
    ##  3         250                    0.102                 2                   8.81
    ##  4         250                    0.148                 4                  33.0 
    ##  5         250                    0.237                 3                  33.0 
    ##  6         144                    0.404                 3                  18.6 
    ##  7         250                    0.210                 1                  39.3 
    ##  8         250                    0.452                27                   1.78
    ##  9         250                    0.0689                6                  20.7 
    ## 10         144                    0.532                 1                  38.2 
    ## # … with 7,804 more rows, and 11 more variables:
    ## #   Sample Collection Source <fct>, Number of Samples Per Patient <dbl>,
    ## #   Sample coverage <dbl>, Sample Type <fct>, Sex <fct>, Smoking History <fct>,
    ## #   Somatic Status <fct>, Specimen Preservation Type <fct>,
    ## #   Specimen Type <fct>, Tumor Purity <dbl>, Patient's Vital Status <fct>
…
    # now we will create a dataset of only row for which there is no overall survival value
    msk_os_na <- msk %>%
      select(msk_model_variables) %>%
      drop_na(-`Overall Survival (Months)`) %>%
      filter(is.na(`Overall Survival (Months)`)) %>%
      select(-`Overall Survival (Months)`)

    # use our model to make predictions for overall survival 
    msk_os_na$predicted_os <- predict(msk_os_model, newdata = msk_os_na)

    print(msk_os_na)

    ## # A tibble: 2,655 × 15
    ##    `DNA Input` `Fraction Genome Altered` `Mutation Count` `Sample Collection So…
    ##          <dbl>                     <dbl>            <dbl> <chr>                 
    ##  1         250                    0.278                16 Outside               
    ##  2         198                    0.350                 7 In-House              
    ##  3         250                    0.420                 4 In-House              
    ##  4         250                    0.473                10 Outside               
    ##  5         250                    0.159                12 In-House              
    ##  6          50                    0.0185                3 In-House              
    ##  7         250                    0.182                 2 In-House              
    ##  8         250                    0.343                 2 In-House              
    ##  9         250                    0.216                 0 In-House              
    ## 10         250                    0.420                 6 In-House              
    ## # … with 2,645 more rows, and 11 more variables:
    ## #   Number of Samples Per Patient <dbl>, Sample coverage <dbl>,
    ## #   Sample Type <chr>, Sex <chr>, Smoking History <chr>, Somatic Status <chr>,
    ## #   Specimen Preservation Type <chr>, Specimen Type <chr>, Tumor Purity <dbl>,
    ## #   Patient's Vital Status <chr>, predicted_os <dbl>
…
